﻿# Anbennar: commenting vanilla stuff

###########
## Generic Holy Site Buildings
###########

# holy_site_cathedral_01 = { }

# holy_site_mosque_01 = { }

# holy_site_pagan_grand_temple_01 = { }

# holy_site_indian_grand_temple_01 = { }

holy_site_other_grand_temple_01 = {
	asset = {
		type = pdxmesh
		name = "building_special_cathedral_generic_mesh"
	}

	construction_time = very_slow_construction_time

	type_icon = "icon_structure_cathedral_zoroastric.dds"
	
	can_construct_potential = {
		building_requirement_tribal = no
	}
	
	can_construct = {
		custom_description = {
			text = holy_site_building_trigger
			barony = {
				is_holy_site_of = scope:holder.faith
			}
		}
		scope:holder = {
			culture = {
				has_innovation = innovation_crop_rotation
			}
		}
	}
	
	is_enabled = {
		custom_description = {
			text = holy_site_building_trigger
			barony = {
				is_holy_site_of = scope:holder.faith
			}
		}
	}
	
	cost_gold = 1000

	character_modifier = {
		monthly_piety = 0.25
		monthly_dynasty_prestige_mult = 0.05
		men_at_arms_maintenance = -0.025
		short_reign_duration_mult = -0.1
		monthly_county_control_change_factor = 0.05
	}
	
	county_modifier = {
		tax_mult = 0.2
		development_growth_factor = 0.2
		development_growth = 0.15
	}
	
	province_modifier = {
		monthly_income = 2
	}
	
	ai_value = {
		base = 100
		modifier = { # Fill all building slots before going for special buildings
			factor = 0
			free_building_slots > 0
		}
	}
	
	type = special

	flag = travel_point_of_interest_religious
}

# NOTE: the custom loc key GetSpecialBuildingNameFromProvince in 00_building_custom_localization.txt pulls from this database. If a new special building is added here, please update the custom loc key!

##########
# Mahabodhi Temple
##########

# holy_site_mahabodhi_temple_01 = { }

##########
# Imam Ali Mosque
##########

# holy_site_imam_ali_mosque_01 = { }

##########
# Great Mosque of Mecca
##########

# holy_site_great_mosque_of_mecca_01 = { }

##########
# Great Mosque of Cordoba
##########

# holy_site_great_mosque_of_cordoba_01 = { }

##########
# Great Mosque of Djenne
##########

# holy_site_great_mosque_of_djenne_01 = { }

##########
# Great Mosque of Samarra
##########

# holy_site_great_mosque_of_samarra_01 = { }

##########
# Cologne Cathedral
##########

# holy_site_cologne_cathedral_01 = { }

##########
# Canterbury Cathedral
##########

# holy_site_canterbury_cathedral_01 = { }

# holy_site_canterbury_cathedral_02 = { }

# holy_site_canterbury_cathedral_03 = { }

##########
# Prophetic Mosque
##########

# holy_site_prophetic_mosque_01 = { }

##########
# Doge's Palace
##########

# doges_palace_01 = { }

##########
# Walls of Genoa
##########

# walls_of_genoa_01 = { }

##########
# Visby Ringmur
##########

# visby_ringmur_01 = { }

##########
# Walls of Benin
##########

# walls_of_benin_01 = { }

##########
# Theodosian Walls
##########

# theodosian_walls_01 = { }

##########
# Aurelian Walls
##########

# aurelian_walls_01 = { }

##########
# The Colosseum
##########

# the_colosseum_01 = { }

##########
# Iron Pillar of Delhi
##########

# iron_pillar_of_delhi_01 = { }

##########
# Iron Pillar of Dhar
##########

# iron_pillar_of_dhar_01 = { }

##########
# The Pyramids
##########

# the_pyramids_01 = { }

##########
# Stonehenge
##########

# stonehenge_01 = { }

##########
# Offa's Dyke
##########

# offas_dyke_01 = { }

##########
# Hadrian's Wall
##########

# hadrians_wall_01 = { }

##########
# Petra
##########

# petra_01 = { }

##########
# Buddhas of Bamian
##########

# buddhas_of_bamian_01 = { }

##########
# Alhambra
##########

# alhambra_01 = { }

# alhambra_02 = { }

##########
# Citadel of Aleppo
##########

# citadel_of_aleppo_01 = { }

# citadel_of_aleppo_02 = { }

##########
# House of Wisdom
##########

# house_of_wisdom_01 = { }

##########
# The Tower of London
##########

# the_tower_of_london_01 = { }

##########
# Notre Dame
##########

# notre_dame_01 = { }

##########
# Brihadeeswarar Temple
##########

# brihadeeswarar_temple_01 = { }

##########
# Shwedagon Pagoda
##########

# shwedagon_pagoda_01 = { }

##########
# Ananda Temple
##########

# ananda_temple_01 = { }

##########
# The Friday Mosque
##########

# the_friday_mosque_01 = { }

##########
# Khajuraho
##########

# khajuraho_01 = { }

##########
# Palace of Aachen
##########

# palace_of_aachen_01 = { }

##########
# Hagia Sophia
##########

# hagia_sophia_01 = { }

# hagia_sophia_02 = { }

##########
# Dome of the Rock / Temple in Jerusalem
##########

# dome_of_the_rock_01 = { }

# temple_in_jerusalem_01 = { }

##########
# Hall of Heroes
##########

# hall_of_heroes_01 = { }

# hall_of_heroes_02 = { }

# hall_of_heroes_03 = { }

# hall_of_heroes_04 = { }

# hall_of_heroes_05 = { }

##########
# Universities
##########

generic_university = {
	construction_time = very_slow_construction_time
	effect_desc = {
		desc = unlocks_building_desc
		triggered_desc = {
			trigger = { has_dlc_feature = tours_and_tournaments }
			desc = university_toto_effect_desc
		}
		triggered_desc = {
			trigger = { has_dlc_feature = royal_court }
			desc = university_roco_effect_desc
		}
		desc = university_effect_desc
	}

	type_icon = "icon_building_university.dds"
	
	can_construct_potential = {
		building_requirement_tribal = no
		building_university_requirement = yes
	}
	
	can_construct = {
		scope:holder = {
			highest_held_title_tier >= tier_duchy
			prestige_level >= 4
		}
		county = {
			development_level >= 30
		}
	}
	
	show_disabled = yes
	
	on_complete = {
		county.holder = {
			save_scope_as = founder

			found_university_decision_event_effect = yes

			every_player = {
				limit = {
					NOT = { this = scope:founder }
					is_within_diplo_range = { CHARACTER = scope:founder }
				}
				trigger_event = major_decisions.2002
			}
		}
	}
	
	cost_gold = 1000

	character_modifier = {
		learning_per_prestige_level = 1
		monthly_lifestyle_xp_gain_mult = 0.1
		cultural_head_fascination_mult = 0.05
		monthly_dynasty_prestige = 0.25
	}
	
	county_modifier = {
		development_growth_factor = 0.1
		development_growth = 0.1
	}
	
	ai_value = {
		base = 8
		modifier = { # Fill all building slots before going for special buildings
			factor = 0
			free_building_slots > 0
		}
	}
	
	type = special

	flag = travel_point_of_interest_learning
}

# al_azhar_university = { }

# sankore_university = { }

# siena_university = { }

# nalanda_university = { }

########
#Sicilian_parliament
########

# special_sicilian_parliament_01 = { }

########
#Greenhouse
########

special_greenhouse_01 = {
	construction_time = very_slow_construction_time
	
	is_enabled = {
		has_variable = variable_greenhouse
	}
	
	province_modifier = {
		monthly_income = 1
	}

	county_modifier = {
		development_growth_factor = 0.25
		county_opinion_add = 25
	}
	character_modifier = {
		health = 0.25
		monthly_prestige = 1
	}

	type_icon = "icon_building_generic_house.dds"
	
	ai_value = {
		base = 100
		modifier = { # Fill all building slots before going for special buildings
			factor = 0
			free_building_slots > 0
		}
	}
	
	type = special

	flag = travel_point_of_interest_learning
}

##########
# Hotin Fortress (AKA: Khotyn Fortress)
##########

# hotin_fort_01 = { }

# hotin_fort_02 = { }

##########
# Golden Gate of Kiev
##########

# golden_gate_of_kiev_01 = { }

##########
# Heddal Stave Church
##########

# heddal_stave_church_01 = { }

##########
# Temple of Uppsala
##########

# temple_of_uppsala_01 = { }

# temple_of_uppsala_02 = { }

##########
# Lund Cathedral
##########

# lund_cathedral_01 = { }

##########
# Danevirke
##########

# danevirke_01 = { }

##########
# Roman Walls of Lugo 
##########

# roman_wall_of_lugo_01 = { }

##########
# Rock of Gibraltar  
##########

# rock_of_gibraltar_01 = { }

##########
# Aljaferia Palace  
##########

# aljaferia_palace_01 = { }

##########
# Tower of Hercules  
##########

# tower_of_hercules_01 = { }

##########
# City Walls of Toledo 
##########

# city_wall_of_toledo_01 = { }

##########
# Alcazar de Segovia  
##########

# alcazar_of_segovia_01 = { }

##########
# The Santiago de Compostela Archcathedral Basilica 
##########

# holy_site_basilica_santiago_01 = { }
